digraph G {
"world" -> "base"[label="Broadcaster: /robot_state_publisher\nAverage rate: 10000.000 Hz\nMost recent transform: 0.000 ( 16.010 sec old)\nBuffer length: 0.000 sec\n"];
"base" -> "controller_box"[label="Broadcaster: /robot_state_publisher\nAverage rate: 10000.000 Hz\nMost recent transform: 0.000 ( 16.010 sec old)\nBuffer length: 0.000 sec\n"];
"head" -> "screen"[label="Broadcaster: /robot_state_publisher\nAverage rate: 10000.000 Hz\nMost recent transform: 0.000 ( 16.010 sec old)\nBuffer length: 0.000 sec\n"];
"right_l0" -> "head"[label="Broadcaster: /robot_state_publisher\nAverage rate: 50.273 Hz\nMost recent transform: 15.989 ( 0.021 sec old)\nBuffer length: 3.660 sec\n"];
"head" -> "head_camera"[label="Broadcaster: /robot_state_publisher\nAverage rate: 10000.000 Hz\nMost recent transform: 0.000 ( 16.010 sec old)\nBuffer length: 0.000 sec\n"];
"head_camera" -> "head_camera_optical"[label="Broadcaster: /robot_state_publisher\nAverage rate: 10000.000 Hz\nMost recent transform: 0.000 ( 16.010 sec old)\nBuffer length: 0.000 sec\n"];
"base" -> "pedestal_feet"[label="Broadcaster: /robot_state_publisher\nAverage rate: 10000.000 Hz\nMost recent transform: 0.000 ( 16.010 sec old)\nBuffer length: 0.000 sec\n"];
"base" -> "pedestal"[label="Broadcaster: /robot_state_publisher\nAverage rate: 10000.000 Hz\nMost recent transform: 0.000 ( 16.010 sec old)\nBuffer length: 0.000 sec\n"];
"right_l4" -> "right_arm_itb"[label="Broadcaster: /robot_state_publisher\nAverage rate: 10000.000 Hz\nMost recent transform: 0.000 ( 16.010 sec old)\nBuffer length: 0.000 sec\n"];
"right_l3" -> "right_l4"[label="Broadcaster: /robot_state_publisher\nAverage rate: 50.273 Hz\nMost recent transform: 15.989 ( 0.021 sec old)\nBuffer length: 3.660 sec\n"];
"base" -> "right_arm_base_link"[label="Broadcaster: /robot_state_publisher\nAverage rate: 10000.000 Hz\nMost recent transform: 0.000 ( 16.010 sec old)\nBuffer length: 0.000 sec\n"];
"right_l6" -> "right_hand"[label="Broadcaster: /robot_state_publisher\nAverage rate: 10000.000 Hz\nMost recent transform: 0.000 ( 16.010 sec old)\nBuffer length: 0.000 sec\n"];
"right_l5" -> "right_l6"[label="Broadcaster: /robot_state_publisher\nAverage rate: 50.273 Hz\nMost recent transform: 15.989 ( 0.021 sec old)\nBuffer length: 3.660 sec\n"];
"right_l5" -> "right_hand_camera"[label="Broadcaster: /robot_state_publisher\nAverage rate: 10000.000 Hz\nMost recent transform: 0.000 ( 16.010 sec old)\nBuffer length: 0.000 sec\n"];
"right_l4" -> "right_l5"[label="Broadcaster: /robot_state_publisher\nAverage rate: 50.273 Hz\nMost recent transform: 15.989 ( 0.021 sec old)\nBuffer length: 3.660 sec\n"];
"right_hand_camera" -> "right_hand_camera_optical"[label="Broadcaster: /robot_state_publisher\nAverage rate: 10000.000 Hz\nMost recent transform: 0.000 ( 16.010 sec old)\nBuffer length: 0.000 sec\n"];
"right_l1" -> "right_l1_2"[label="Broadcaster: /robot_state_publisher\nAverage rate: 10000.000 Hz\nMost recent transform: 0.000 ( 16.010 sec old)\nBuffer length: 0.000 sec\n"];
"right_l0" -> "right_l1"[label="Broadcaster: /robot_state_publisher\nAverage rate: 50.273 Hz\nMost recent transform: 15.989 ( 0.021 sec old)\nBuffer length: 3.660 sec\n"];
"right_l2" -> "right_l2_2"[label="Broadcaster: /robot_state_publisher\nAverage rate: 10000.000 Hz\nMost recent transform: 0.000 ( 16.010 sec old)\nBuffer length: 0.000 sec\n"];
"right_l1" -> "right_l2"[label="Broadcaster: /robot_state_publisher\nAverage rate: 50.273 Hz\nMost recent transform: 15.989 ( 0.021 sec old)\nBuffer length: 3.660 sec\n"];
"right_l4" -> "right_l4_2"[label="Broadcaster: /robot_state_publisher\nAverage rate: 10000.000 Hz\nMost recent transform: 0.000 ( 16.010 sec old)\nBuffer length: 0.000 sec\n"];
"right_l0" -> "right_torso_itb"[label="Broadcaster: /robot_state_publisher\nAverage rate: 10000.000 Hz\nMost recent transform: 0.000 ( 16.010 sec old)\nBuffer length: 0.000 sec\n"];
"right_arm_base_link" -> "right_l0"[label="Broadcaster: /robot_state_publisher\nAverage rate: 50.273 Hz\nMost recent transform: 15.989 ( 0.021 sec old)\nBuffer length: 3.660 sec\n"];
"right_l5" -> "right_wrist"[label="Broadcaster: /robot_state_publisher\nAverage rate: 10000.000 Hz\nMost recent transform: 0.000 ( 16.010 sec old)\nBuffer length: 0.000 sec\n"];
"base" -> "torso"[label="Broadcaster: /robot_state_publisher\nAverage rate: 10000.000 Hz\nMost recent transform: 0.000 ( 16.010 sec old)\nBuffer length: 0.000 sec\n"];
"right_l2" -> "right_l3"[label="Broadcaster: /robot_state_publisher\nAverage rate: 50.273 Hz\nMost recent transform: 15.989 ( 0.021 sec old)\nBuffer length: 3.660 sec\n"];
edge [style=invis];
 subgraph cluster_legend { style=bold; color=black; label ="view_frames Result";
"Recorded at time: 16.010"[ shape=plaintext ] ;
 }->"world";
}