<?xml version="1.0" ?>
<!-- =================================================================================== -->
<!-- |    This document was autogenerated by xacro from sawyer_polish.urdf.xacro       | -->
<!-- |    EDITING THIS FILE BY HAND IS NOT RECOMMENDED                                 | -->
<!-- =================================================================================== -->
<robot name="sawyer" xmlns:xacro="http://www.ros.org/wiki/xacro">
  <!-- ros_control plugin -->
  <gazebo>
    <plugin filename="libsawyer_gazebo_ros_control.so" name="sawyer_ros_control">
      <robotNamespace>/robot</robotNamespace>
      <robotSimType>sawyer_gazebo/SawyerRobotHWSim</robotSimType>
      <controlPeriod>0.001</controlPeriod>
      <eStopTopic>sim_estop</eStopTopic>
    </plugin>
  </gazebo>
  <!-- Gazebo-Specific Link Properties -->
  <link name="world"/>
  <joint name="fixed" type="fixed">
    <parent link="world"/>
    <child link="base"/>
  </joint>
  <gazebo reference="pedestal">
    <material>Gazebo/FlatBlack</material>
  </gazebo>
  <gazebo reference="torso">
    <self_collide>true</self_collide>
  </gazebo>
  <gazebo reference="head_pan">
    <implicitSpringDamper>1</implicitSpringDamper>
    <provideFeedback>true</provideFeedback>
  </gazebo>
  <gazebo reference="right_j0">
    <implicitSpringDamper>1</implicitSpringDamper>
    <provideFeedback>true</provideFeedback>
  </gazebo>
  <gazebo reference="right_j1">
    <implicitSpringDamper>1</implicitSpringDamper>
    <provideFeedback>true</provideFeedback>
  </gazebo>
  <gazebo reference="right_j2">
    <implicitSpringDamper>1</implicitSpringDamper>
    <provideFeedback>true</provideFeedback>
  </gazebo>
  <gazebo reference="right_j3">
    <implicitSpringDamper>1</implicitSpringDamper>
    <provideFeedback>true</provideFeedback>
  </gazebo>
  <gazebo reference="right_j4">
    <implicitSpringDamper>1</implicitSpringDamper>
    <provideFeedback>true</provideFeedback>
  </gazebo>
  <gazebo reference="right_j5">
    <implicitSpringDamper>1</implicitSpringDamper>
    <provideFeedback>true</provideFeedback>
  </gazebo>
  <gazebo reference="right_j6">
    <implicitSpringDamper>1</implicitSpringDamper>
    <provideFeedback>true</provideFeedback>
  </gazebo>
  <joint name="head_camera_optical_joint" type="fixed">
    <origin rpy="-3.14159265359 -1.57079632679 -1.57079632679" xyz="0 0 0"/>
    <parent link="head_camera"/>
    <child link="head_camera_optical"/>
  </joint>
  <link name="head_camera_optical"/>
  <gazebo reference="head_camera_optical">
    <sensor name="head_camera" type="camera">
      <update_rate>10</update_rate>
      <camera name="head_camera">
        <horizontal_fov>2.00787026</horizontal_fov>
        <image>
          <width>1280</width>
          <height>800</height>
          <format>R8G8B8</format>
        </image>
        <clip>
          <near>0.1</near>
          <far>50</far>
        </clip>
        <!-- Uncomment to add image Distortion -->
        <!-- distortion>
          <k1>0.6545419633392568</k1>
          <k2>0.012904541485280972</k2>
          <k3>-0.012279942338550547</k3>
          <p1>-0.00036475699823703154</p1>
          <p2>3.334461262764956e-05</p2>
          <center>677.8808657338167 382.02964533321426</center>
        </distortion -->
      </camera>
      <!-- Uncomment to visualize image inside Gazebo -->
      <!-- visualize>true</visualize -->
      <plugin filename="libgazebo_ros_camera.so" name="camera_controller">
        <alwaysOn>true</alwaysOn>
        <updateRate>10</updateRate>
        <cameraName>head_camera</cameraName>
        <imageTopicName>/io/internal_camera/head_camera/image_raw</imageTopicName>
        <cameraInfoTopicName>/io/internal_camera/head_camera/camera_info</cameraInfoTopicName>
        <frameName>head_camera</frameName>
        <focalLength>407.391526</focalLength>
        <!-- Uncomment to add image Distortion params to camera_info topic -->
        <!-- distortionK1>0.6545419633392568</distortionK1>
        <distortionK2>0.012904541485280972</distortionK2>
        <distortionK3>-0.012279942338550547</distortionK3>
        <distortionT1>-0.00036475699823703154</distortionT1>
        <distortionT2>3.334461262764956e-05</distortionT2>
        <Cx>677.8808657338167</Cx>
        <Cy>382.02964533321426</Cy -->
      </plugin>
    </sensor>
  </gazebo>
  <joint name="right_hand_camera_optical_joint" type="fixed">
    <origin rpy="-3.14159265359 -1.57079632679 -1.57079632679" xyz="0 0 0"/>
    <parent link="right_hand_camera"/>
    <child link="right_hand_camera_optical"/>
  </joint>
  <link name="right_hand_camera_optical"/>
  <gazebo reference="right_hand_camera_optical">
    <sensor name="right_hand_camera" type="camera">
      <update_rate>10.0</update_rate>
      <camera name="right_hand_camera">
        <horizontal_fov>1.0992892</horizontal_fov>
        <image>
          <width>752</width>
          <height>480</height>
          <format>L8</format>
        </image>
        <clip>
          <near>0.02</near>
          <far>10</far>
        </clip>
        <!-- Uncomment to add image Distortion -->
        <!-- distortion>
          <k1>-0.442</k1>
          <k2>0.273</k2>
          <k3>-0.123</k3>
          <p1>0.0</p1>
          <p2>0.0</p2>
          <center>365.734985 237.988998</center>
        </distortion -->
      </camera>
      <!-- Uncomment to visualize image inside Gazebo -->
      <!-- visualize>true</visualize -->
      <plugin filename="libgazebo_ros_camera.so" name="camera_controller">
        <alwaysOn>true</alwaysOn>
        <updateRate>10.0</updateRate>
        <cameraName>right_hand_camera</cameraName>
        <imageTopicName>/io/internal_camera/right_hand_camera/image_raw</imageTopicName>
        <cameraInfoTopicName>/io/internal_camera/right_hand_camera/camera_info</cameraInfoTopicName>
        <frameName>right_hand_camera</frameName>
        <focalLength>613.760435</focalLength>
        <!-- Uncomment to add image Distortion params to camera_info topic -->
        <!-- distortionK1>-0.442</distortionK1>
        <distortionK2>0.273</distortionK2>
        <distortionK3>-0.123</distortionK3>
        <distortionT1>0.0</distortionT1>
        <distortionT2>0.0</distortionT2>
        <Cx>365.734985</Cx>
        <Cy>237.988998</Cy -->
      </plugin>
    </sensor>
  </gazebo>
  <gazebo reference="screen">
    <visual>
      <plugin filename="libgazebo_ros_video.so" name="screen_video_controller">
        <height>600</height>
        <width>1024</width>
        <topicName>/robot/head_display</topicName>
        <robotNamespace>/robot</robotNamespace>
      </plugin>
    </visual>
  </gazebo>
  <!-- Transmissions -->
  <!-- Right Arm -->
  <transmission name="right_tran0">
    <type>transmission_interface/SimpleTransmission</type>
    <joint name="right_j0">
      <hardwareInterface>hardware_interface/EffortJointInterface</hardwareInterface>
    </joint>
    <actuator name="right_motor0">
      <hardwareInterface>hardware_interface/EffortJointInterface</hardwareInterface>
      <mechanicalReduction>1</mechanicalReduction>
    </actuator>
  </transmission>
  <transmission name="right_tran1">
    <type>transmission_interface/SimpleTransmission</type>
    <joint name="right_j1">
      <hardwareInterface>hardware_interface/EffortJointInterface</hardwareInterface>
    </joint>
    <actuator name="right_motor1">
      <hardwareInterface>hardware_interface/EffortJointInterface</hardwareInterface>
      <mechanicalReduction>1</mechanicalReduction>
    </actuator>
  </transmission>
  <transmission name="right_tran2">
    <type>transmission_interface/SimpleTransmission</type>
    <joint name="right_j2">
      <hardwareInterface>hardware_interface/EffortJointInterface</hardwareInterface>
    </joint>
    <actuator name="right_motor2">
      <hardwareInterface>hardware_interface/EffortJointInterface</hardwareInterface>
      <mechanicalReduction>1</mechanicalReduction>
    </actuator>
  </transmission>
  <transmission name="right_tran3">
    <type>transmission_interface/SimpleTransmission</type>
    <joint name="right_j3">
      <hardwareInterface>hardware_interface/EffortJointInterface</hardwareInterface>
    </joint>
    <actuator name="right_motor3">
      <hardwareInterface>hardware_interface/EffortJointInterface</hardwareInterface>
      <mechanicalReduction>1</mechanicalReduction>
    </actuator>
  </transmission>
  <transmission name="right_tran4">
    <type>transmission_interface/SimpleTransmission</type>
    <joint name="right_j4">
      <hardwareInterface>hardware_interface/EffortJointInterface</hardwareInterface>
    </joint>
    <actuator name="right_motor4">
      <hardwareInterface>hardware_interface/EffortJointInterface</hardwareInterface>
      <mechanicalReduction>1</mechanicalReduction>
    </actuator>
  </transmission>
  <transmission name="right_tran5">
    <type>transmission_interface/SimpleTransmission</type>
    <joint name="right_j5">
      <hardwareInterface>hardware_interface/EffortJointInterface</hardwareInterface>
    </joint>
    <actuator name="right_motor5">
      <hardwareInterface>hardware_interface/EffortJointInterface</hardwareInterface>
      <mechanicalReduction>1</mechanicalReduction>
    </actuator>
  </transmission>
  <transmission name="right_tran6">
    <type>transmission_interface/SimpleTransmission</type>
    <joint name="right_j6">
      <hardwareInterface>hardware_interface/EffortJointInterface</hardwareInterface>
    </joint>
    <actuator name="right_motor6">
      <hardwareInterface>hardware_interface/EffortJointInterface</hardwareInterface>
      <mechanicalReduction>1</mechanicalReduction>
    </actuator>
  </transmission>
  <!-- Head -->
  <transmission name="head0">
    <type>transmission_interface/SimpleTransmission</type>
    <joint name="head_pan">
      <hardwareInterface>hardware_interface/EffortJointInterface</hardwareInterface>
    </joint>
    <actuator name="head_motor0">
      <hardwareInterface>hardware_interface/EffortJointInterface</hardwareInterface>
      <mechanicalReduction>1</mechanicalReduction>
    </actuator>
  </transmission>
  <material name="black">
    <color rgba="0 0 0 1"/>
  </material>
  <material name="darkgray">
    <color rgba=".2 .2 .2 1"/>
  </material>
  <material name="darkred">
    <color rgba=".5 .1 .1 1"/>
  </material>
  <material name="sawyer_red">
    <color rgba=".5 .1 .1 1"/>
  </material>
  <material name="sawyer_gray">
    <color rgba="0.75294 0.75294 0.75294 1"/>
  </material>
  <link name="base">
    <!--  In Gazebo, links with zero principal moment of inertia (ixx, iyy, izz) could lead to infinite acceleration under any finite torque application.
      http://gazebosim.org/tutorials/?tut=ros_urdf -->
    <inertial>
      <origin rpy="0 0 0" xyz="0 0 0"/>
      <mass value="0.01"/>
      <inertia ixx="0.01" ixy="0" ixz="0" iyy="0.01" iyz="0" izz="0.01"/>
    </inertial>
  </link>
  <link name="torso">
    <visual>
      <origin rpy="0 0 0" xyz="0 0 0"/>
      <geometry>
        <box size="0.001 0.001 0.001"/>
      </geometry>
      <material name="darkgray">
        <color rgba=".2 .2 .2 1"/>
      </material>
    </visual>
    <!--  In Gazebo, links with zero principal moment of inertia (ixx, iyy, izz) could lead to infinite acceleration under any finite torque application.
      http://gazebosim.org/tutorials/?tut=ros_urdf -->
    <inertial>
      <origin rpy="0 0 0" xyz="0 0 0"/>
      <mass value="0.01"/>
      <inertia ixx="0.01" ixy="0" ixz="0" iyy="0.01" iyz="0" izz="0.01"/>
    </inertial>
  </link>
  <link name="pedestal">
    <visual>
      <origin rpy="1.57079632679 0 -1.57079632679" xyz="0.26 0.345 -0.91488"/>
      <geometry>
        <mesh filename="package://sawyer_description/meshes/sawyer_pv/pedestal.DAE"/>
      </geometry>
      <material name="darkgray"/>
    </visual>
    <collision>
      <origin rpy="0 0 0" xyz="-0.02 0 -0.29"/>
      <geometry>
        <cylinder length="0.62" radius="0.18"/>
      </geometry>
    </collision>
    <inertial>
      <origin rpy="0 0 0" xyz="0 0 -0.5"/>
      <mass value="60.86397744"/>
      <inertia ixx="5.0635929" ixy="0.00103417" ixz="0.80199628" iyy="6.08689388" iyz="0.00105311" izz="4.96191932"/>
    </inertial>
  </link>
  <link name="controller_box">
    <collision>
      <origin rpy="0 0 0" xyz="-0.325 0 -0.38"/>
      <geometry>
        <box size="0.22 0.4 0.53"/>
      </geometry>
    </collision>
    <!--  In Gazebo, links with zero principal moment of inertia (ixx, iyy, izz) could lead to infinite acceleration under any finite torque application.
      http://gazebosim.org/tutorials/?tut=ros_urdf -->
    <inertial>
      <origin rpy="0 0 0" xyz="0 0 0"/>
      <mass value="0.01"/>
      <inertia ixx="0.01" ixy="0" ixz="0" iyy="0.01" iyz="0" izz="0.01"/>
    </inertial>
  </link>
  <joint name="controller_box_fixed" type="fixed">
    <origin rpy="0 0 0" xyz="0.0 0.0 0.0"/>
    <parent link="base"/>
    <child link="controller_box"/>
  </joint>
  <link name="pedestal_feet">
    <collision>
      <origin rpy="0 0 0" xyz="-0.1225 0 -0.758"/>
      <geometry>
        <box size="0.77 0.7 0.31"/>
      </geometry>
    </collision>
    <!--  In Gazebo, links with zero principal moment of inertia (ixx, iyy, izz) could lead to infinite acceleration under any finite torque application.
      http://gazebosim.org/tutorials/?tut=ros_urdf -->
    <inertial>
      <origin rpy="0 0 0" xyz="0 0 0"/>
      <mass value="0.01"/>
      <inertia ixx="0.01" ixy="0" ixz="0" iyy="0.01" iyz="0" izz="0.01"/>
    </inertial>
  </link>
  <joint name="pedestal_feet_fixed" type="fixed">
    <origin rpy="0 0 0" xyz="0.0 0.0 0.0"/>
    <parent link="base"/>
    <child link="pedestal_feet"/>
  </joint>
  <joint name="torso_t0" type="fixed">
    <origin rpy="0 0 0" xyz="0 0 0"/>
    <parent link="base"/>
    <child link="torso"/>
  </joint>
  <joint name="pedestal_fixed" type="fixed">
    <origin rpy="0 0 0" xyz="0.0 0.0 0.0"/>
    <parent link="base"/>
    <child link="pedestal"/>
  </joint>
  <joint name="right_arm_mount" type="fixed">
    <origin rpy="0 0 0" xyz="0.0 0.0 0.0"/>
    <parent link="base"/>
    <child link="right_arm_base_link"/>
  </joint>
  <link name="right_arm_base_link">
    <inertial>
      <origin rpy="0 0 0" xyz="-0.0006241 -2.8025E-05 0.065404"/>
      <mass value="2.0687"/>
      <inertia ixx="0.0067599" ixy="-4.2024E-05" ixz="-6.1904E-07" iyy="0.0067877" iyz="1.5888E-05" izz="0.0074031"/>
    </inertial>
    <visual>
      <origin rpy="0 0 0" xyz="0 0 0"/>
      <geometry>
        <mesh filename="package://sawyer_description/meshes/sawyer_pv/base.DAE"/>
      </geometry>
      <material name="sawyer_red"/>
    </visual>
    <collision>
      <origin rpy="0 0 0" xyz="0 0 0.12"/>
      <geometry>
        <cylinder length="0.24" radius="0.08"/>
      </geometry>
    </collision>
  </link>
  <link name="right_l0">
    <inertial>
      <origin rpy="0 0 0" xyz="0.024366 0.010969 0.14363"/>
      <mass value="5.3213"/>
      <inertia ixx="0.053314" ixy="0.0047093" ixz="0.011734" iyy="0.057902" iyz="0.0080179" izz="0.023659"/>
    </inertial>
    <visual>
      <origin rpy="0 0 0" xyz="0 0 0"/>
      <geometry>
        <mesh filename="package://sawyer_description/meshes/sawyer_mp3/l0.DAE"/>
      </geometry>
      <material name="sawyer_red"/>
    </visual>
    <collision>
      <origin rpy="0 0 0" xyz="0.08 0 0.23"/>
      <geometry>
        <sphere radius="0.07"/>
      </geometry>
    </collision>
  </link>
  <joint name="right_j0" type="revolute">
    <origin rpy="0 0 0" xyz="0 0 0.08"/>
    <parent link="right_arm_base_link"/>
    <child link="right_l0"/>
    <axis xyz="0 0 1"/>
    <limit effort="80.0" lower="-3.0503" upper="3.0503" velocity="1.74"/>
    <dynamics damping="15.0" friction="5.0"/>
  </joint>
  <link name="head">
    <inertial>
      <origin rpy="0 0 0" xyz="0.0053207 -2.6549E-05 0.1021"/>
      <mass value="1.5795"/>
      <inertia ixx="0.011833" ixy="-4.4669E-06" ixz="4.9425E-05" iyy="0.0082709" iyz="4.2124E-07" izz="0.0049661"/>
    </inertial>
    <visual>
      <origin rpy="0 0 0" xyz="0 0 0"/>
      <geometry>
        <mesh filename="package://sawyer_description/meshes/sawyer_pv/head.DAE"/>
      </geometry>
      <material name="sawyer_red"/>
    </visual>
    <collision>
      <origin rpy="0 0 0" xyz="0 0 0.08"/>
      <geometry>
        <sphere radius="0.18"/>
      </geometry>
    </collision>
  </link>
  <joint name="head_pan" type="revolute">
    <origin rpy="0 0 0" xyz="0 0 0.2965"/>
    <parent link="right_l0"/>
    <child link="head"/>
    <axis xyz="0 0 1"/>
    <limit effort="8" lower="-5.0952" upper="0.9064" velocity="1.8"/>
    <dynamics damping="1.0" friction="0.5"/>
  </joint>
  <link name="right_torso_itb">
    <!--  In Gazebo, links with zero principal moment of inertia (ixx, iyy, izz) could lead to infinite acceleration under any finite torque application.
      http://gazebosim.org/tutorials/?tut=ros_urdf -->
    <inertial>
      <origin rpy="0 0 0" xyz="0 0 0"/>
      <mass value="0.01"/>
      <inertia ixx="0.01" ixy="0" ixz="0" iyy="0.01" iyz="0" izz="0.01"/>
    </inertial>
  </link>
  <joint name="right_torso_itb" type="fixed">
    <origin rpy="0 -1.57079632679 0" xyz="-.055 0 .22"/>
    <parent link="right_l0"/>
    <child link="right_torso_itb"/>
    <axis xyz="0 0 1"/>
  </joint>
  <link name="right_l1">
    <inertial>
      <origin rpy="0 0 0" xyz="-0.0030849 -0.026811 0.092521"/>
      <mass value="4.505"/>
      <inertia ixx="0.022398" ixy="-0.00023986" ixz="-0.00029362" iyy="0.014613" iyz="-0.0060875" izz="0.017295"/>
    </inertial>
    <visual>
      <origin rpy="0 0 0" xyz="0 0 0"/>
      <geometry>
        <mesh filename="package://sawyer_description/meshes/sawyer_mp3/l1.DAE"/>
      </geometry>
      <material name="sawyer_red"/>
    </visual>
    <collision>
      <origin rpy="0 0 0" xyz="0 0 0.1225"/>
      <geometry>
        <sphere radius="0.07"/>
      </geometry>
    </collision>
  </link>
  <joint name="right_j1" type="revolute">
    <origin rpy="-1.57079632679 1.57079632679 0" xyz="0.081 0.05 0.237"/>
    <parent link="right_l0"/>
    <child link="right_l1"/>
    <axis xyz="0 0 1"/>
    <limit effort="80.0" lower="-3.8095" upper="2.2736" velocity="1.328"/>
    <dynamics damping="5.0" friction="2.0"/>
  </joint>
  <link name="right_l2">
    <inertial>
      <origin rpy="0 0 0" xyz="-0.00016044 -0.014967 0.13582"/>
      <mass value="1.745"/>
      <inertia ixx="0.025506" ixy="4.4101E-06" ixz="1.4955E-05" iyy="0.0253" iyz="-0.0033204" izz="0.0034179"/>
    </inertial>
    <visual>
      <origin rpy="0 0 0" xyz="0 0 0"/>
      <geometry>
        <mesh filename="package://sawyer_description/meshes/sawyer_pv/l2.DAE"/>
      </geometry>
      <material name="sawyer_red"/>
    </visual>
    <collision>
      <origin rpy="0 0 0" xyz="0 0 0.08"/>
      <geometry>
        <cylinder length="0.34" radius="0.06"/>
      </geometry>
    </collision>
  </link>
  <joint name="right_j2" type="revolute">
    <origin rpy="1.57079632679 0 0" xyz="0 -0.14 0.1425"/>
    <parent link="right_l1"/>
    <child link="right_l2"/>
    <axis xyz="0 0 1"/>
    <limit effort="40.0" lower="-3.0426" upper="3.0426" velocity="1.957"/>
    <dynamics damping="5.0" friction="2.0"/>
  </joint>
  <link name="right_l3">
    <inertial>
      <origin rpy="0 0 0" xyz="-0.0048135 -0.0281 -0.084154"/>
      <mass value="2.5097"/>
      <inertia ixx="0.01016" ixy="-9.7452E-06" ixz="0.00026624" iyy="0.0065685" iyz="0.0030316" izz="0.0069078"/>
    </inertial>
    <visual>
      <origin rpy="0 0 0" xyz="0 0 0"/>
      <geometry>
        <mesh filename="package://sawyer_description/meshes/sawyer_pv/l3.DAE"/>
      </geometry>
      <material name="sawyer_red"/>
    </visual>
    <collision>
      <origin rpy="0 0 0" xyz="0 -0.01 -0.12"/>
      <geometry>
        <sphere radius="0.06"/>
      </geometry>
    </collision>
  </link>
  <joint name="right_j3" type="revolute">
    <origin rpy="-1.57079632679 0 0" xyz="0 -0.042 0.26"/>
    <parent link="right_l2"/>
    <child link="right_l3"/>
    <axis xyz="0 0 1"/>
    <limit effort="40.0" lower="-3.0439" upper="3.0439" velocity="1.957"/>
    <dynamics damping="15.0" friction="5.0"/>
  </joint>
  <link name="right_l4">
    <inertial>
      <origin rpy="0 0 0" xyz="-0.0018844 0.0069001 0.1341"/>
      <mass value="1.1136"/>
      <inertia ixx="0.013557" ixy="1.8109E-05" ixz="0.00013523" iyy="0.013555" iyz="0.0010561" izz="0.0013658"/>
    </inertial>
    <visual>
      <origin rpy="0 0 0" xyz="0 0 0"/>
      <geometry>
        <mesh filename="package://sawyer_description/meshes/sawyer_pv/l4.DAE"/>
      </geometry>
      <material name="sawyer_red"/>
    </visual>
    <collision>
      <origin rpy="0 0 0" xyz="0 0 0.11"/>
      <geometry>
        <cylinder length="0.30" radius="0.045"/>
      </geometry>
    </collision>
  </link>
  <joint name="right_j4" type="revolute">
    <origin rpy="1.57079632679 0 0" xyz="0 -0.125 -0.1265"/>
    <parent link="right_l3"/>
    <child link="right_l4"/>
    <axis xyz="0 0 1"/>
    <limit effort="9.0" lower="-2.9761" upper="2.9761" velocity="3.485"/>
    <dynamics damping="6.0" friction="1.0"/>
  </joint>
  <link name="right_arm_itb">
    <!--  In Gazebo, links with zero principal moment of inertia (ixx, iyy, izz) could lead to infinite acceleration under any finite torque application.
      http://gazebosim.org/tutorials/?tut=ros_urdf -->
    <inertial>
      <origin rpy="0 0 0" xyz="0 0 0"/>
      <mass value="0.01"/>
      <inertia ixx="0.01" ixy="0" ixz="0" iyy="0.01" iyz="0" izz="0.01"/>
    </inertial>
  </link>
  <joint name="right_arm_itb" type="fixed">
    <origin rpy="0 -1.57079632679 0" xyz="-.055 0 .075"/>
    <parent link="right_l4"/>
    <child link="right_arm_itb"/>
    <axis xyz="0 0 1"/>
  </joint>
  <link name="right_l5">
    <inertial>
      <origin rpy="0 0 0" xyz="0.0061133 -0.023697 0.076416"/>
      <mass value="1.5625"/>
      <inertia ixx="0.0047328" ixy="0.00011526" ixz="4.6269E-05" iyy="0.0029676" iyz="-0.0011557" izz="0.0031762"/>
    </inertial>
    <visual>
      <origin rpy="0 0 0" xyz="0 0 0"/>
      <geometry>
        <mesh filename="package://sawyer_description/meshes/sawyer_pv/l5.DAE"/>
      </geometry>
      <material name="sawyer_red"/>
    </visual>
    <collision>
      <origin rpy="0 0 0" xyz="0 0 0.1"/>
      <geometry>
        <sphere radius="0.06"/>
      </geometry>
    </collision>
  </link>
  <joint name="right_j5" type="revolute">
    <origin rpy="-1.57079632679 0 0" xyz="0 0.031 0.275"/>
    <parent link="right_l4"/>
    <child link="right_l5"/>
    <axis xyz="0 0 1"/>
    <limit effort="9.0" lower="-2.9761" upper="2.9761" velocity="3.485"/>
    <dynamics damping="5.5" friction="1.2"/>
  </joint>
  <link name="right_hand_camera">
    <!--  In Gazebo, links with zero principal moment of inertia (ixx, iyy, izz) could lead to infinite acceleration under any finite torque application.
      http://gazebosim.org/tutorials/?tut=ros_urdf -->
    <inertial>
      <origin rpy="0 0 0" xyz="0 0 0"/>
      <mass value="0.01"/>
      <inertia ixx="0.01" ixy="0" ixz="0" iyy="0.01" iyz="0" izz="0.01"/>
    </inertial>
  </link>
  <joint name="right_hand_camera" type="fixed">
    <origin rpy="0 1.57079632679 0" xyz="0.039552 -0.033 0.0695"/>
    <parent link="right_l5"/>
    <child link="right_hand_camera"/>
    <axis xyz="0 0 0"/>
  </joint>
  <link name="right_wrist">
    <!--  In Gazebo, links with zero principal moment of inertia (ixx, iyy, izz) could lead to infinite acceleration under any finite torque application.
      http://gazebosim.org/tutorials/?tut=ros_urdf -->
    <inertial>
      <origin rpy="0 0 0" xyz="0 0 0"/>
      <mass value="0.01"/>
      <inertia ixx="0.01" ixy="0" ixz="0" iyy="0.01" iyz="0" izz="0.01"/>
    </inertial>
  </link>
  <joint name="right_wrist" type="fixed">
    <origin rpy="1.57079632679 0 0" xyz="0 0 0.10541"/>
    <parent link="right_l5"/>
    <child link="right_wrist"/>
    <axis xyz="0 0 0"/>
  </joint>
  <link name="right_l6">
    <inertial>
      <origin rpy="0 0 0" xyz="-8.0726E-06 0.0085838 -0.0049566"/>
      <mass value="0.3292"/>
      <inertia ixx="0.00031105" ixy="1.4771E-06" ixz="-3.7074E-07" iyy="0.00021549" iyz="-8.4533E-06" izz="0.00035976"/>
    </inertial>
    <visual>
      <origin rpy="0 0 0" xyz="0 0 0"/>
      <geometry>
        <mesh filename="package://sawyer_description/meshes/sawyer_mp1/l6.DAE"/>
      </geometry>
      <material name="sawyer_red"/>
    </visual>
    <collision>
      <origin rpy="0 0 0" xyz="0 0.015 -0.01"/>
      <geometry>
        <cylinder length="0.05" radius="0.055"/>
      </geometry>
    </collision>
  </link>
  <joint name="right_j6" type="revolute">
    <origin rpy="-1.57079632679 -0.17453 3.1416" xyz="0 -0.11 0.1053"/>
    <parent link="right_l5"/>
    <child link="right_l6"/>
    <axis xyz="0 0 1"/>
    <limit effort="9.0" lower="-3.14" upper="3.14" velocity="4.545"/>
    <dynamics damping="1.0" friction="0.5"/>
  </joint>
  <link name="right_hand">
    <!--  In Gazebo, links with zero principal moment of inertia (ixx, iyy, izz) could lead to infinite acceleration under any finite torque application.
      http://gazebosim.org/tutorials/?tut=ros_urdf -->
    <inertial>
      <origin rpy="0 0 0" xyz="0 0 0"/>
      <mass value="0.01"/>
      <inertia ixx="0.01" ixy="0" ixz="0" iyy="0.01" iyz="0" izz="0.01"/>
    </inertial>
  </link>
  <joint name="right_hand" type="fixed">
    <origin rpy="0 0 1.570796" xyz="0 0 0.0245"/>
    <axis xyz="0 0 1"/>
    <parent link="right_l6"/>
    <child link="right_hand"/>
  </joint>
  <link name="right_l1_2">
    <!--  In Gazebo, links with zero principal moment of inertia (ixx, iyy, izz) could lead to infinite acceleration under any finite torque application.
      http://gazebosim.org/tutorials/?tut=ros_urdf -->
    <inertial>
      <origin rpy="0 0 0" xyz="0 0 0"/>
      <mass value="0.01"/>
      <inertia ixx="0.01" ixy="0" ixz="0" iyy="0.01" iyz="0" izz="0.01"/>
    </inertial>
    <collision>
      <origin rpy="0 0 0" xyz="0 0 0.035"/>
      <geometry>
        <cylinder length="0.14" radius="0.07"/>
      </geometry>
    </collision>
  </link>
  <joint name="right_j1_2" type="fixed">
    <origin rpy="0 0 0" xyz="0 0 0"/>
    <parent link="right_l1"/>
    <child link="right_l1_2"/>
    <axis xyz="0 0 1"/>
  </joint>
  <link name="right_l2_2">
    <!--  In Gazebo, links with zero principal moment of inertia (ixx, iyy, izz) could lead to infinite acceleration under any finite torque application.
      http://gazebosim.org/tutorials/?tut=ros_urdf -->
    <inertial>
      <origin rpy="0 0 0" xyz="0 0 0"/>
      <mass value="0.01"/>
      <inertia ixx="0.01" ixy="0" ixz="0" iyy="0.01" iyz="0" izz="0.01"/>
    </inertial>
    <collision>
      <origin rpy="0 0 0" xyz="0 0 0.26"/>
      <geometry>
        <sphere radius="0.06"/>
      </geometry>
    </collision>
  </link>
  <joint name="right_j2_2" type="fixed">
    <origin rpy="0 0 0" xyz="0 0 0"/>
    <parent link="right_l2"/>
    <child link="right_l2_2"/>
    <axis xyz="0 0 1"/>
  </joint>
  <link name="right_l4_2">
    <!--  In Gazebo, links with zero principal moment of inertia (ixx, iyy, izz) could lead to infinite acceleration under any finite torque application.
      http://gazebosim.org/tutorials/?tut=ros_urdf -->
    <inertial>
      <origin rpy="0 0 0" xyz="0 0 0"/>
      <mass value="0.01"/>
      <inertia ixx="0.01" ixy="0" ixz="0" iyy="0.01" iyz="0" izz="0.01"/>
    </inertial>
    <collision>
      <origin rpy="0 0 0" xyz="0 0.01 0.26"/>
      <geometry>
        <sphere radius="0.06"/>
      </geometry>
    </collision>
  </link>
  <joint name="right_j4_2" type="fixed">
    <origin rpy="0 0 0" xyz="0 0 0"/>
    <parent link="right_l4"/>
    <child link="right_l4_2"/>
    <axis xyz="0 0 1"/>
  </joint>
  <link name="screen">
    <visual>
      <origin rpy="0 0 0" xyz="0 0 0"/>
      <geometry>
        <box size="0.24 0.14 0.002"/>
      </geometry>
      <material name="darkgray"/>
    </visual>
    <collision>
      <origin rpy="0 0 0" xyz="0 0 0"/>
      <geometry>
        <sphere radius="0.001"/>
      </geometry>
    </collision>
    <!--  In Gazebo, links with zero principal moment of inertia (ixx, iyy, izz) could lead to infinite acceleration under any finite torque application.
      http://gazebosim.org/tutorials/?tut=ros_urdf -->
    <inertial>
      <origin rpy="0 0 0" xyz="0 0 0"/>
      <mass value="0.01"/>
      <inertia ixx="0.01" ixy="0" ixz="0" iyy="0.01" iyz="0" izz="0.01"/>
    </inertial>
  </link>
  <joint name="display_joint" type="fixed">
    <origin rpy="1.57079632679 0 1.57079632679" xyz="0.03 0.0 0.105"/>
    <parent link="head"/>
    <child link="screen"/>
  </joint>
  <link name="head_camera">
    <!--  In Gazebo, links with zero principal moment of inertia (ixx, iyy, izz) could lead to infinite acceleration under any finite torque application.
      http://gazebosim.org/tutorials/?tut=ros_urdf -->
    <inertial>
      <origin rpy="0 0 0" xyz="0 0 0"/>
      <mass value="0.01"/>
      <inertia ixx="0.01" ixy="0" ixz="0" iyy="0.01" iyz="0" izz="0.01"/>
    </inertial>
  </link>
  <joint name="head_camera" type="fixed">
    <origin rpy="-2.1293 0 -1.57079632679" xyz="0.0228027 0 0.216572"/>
    <parent link="head"/>
    <child link="head_camera"/>
    <axis xyz="0 0 0"/>
  </joint>
  <!-- include ns version of f/t model -->
  <!--    <xacro:arg name='sensor_ns' default='sawyer' />
    <xacro:include filename="$(find force_torque_sensor)/model/ft_sensor_ati_ns.urdf.xacro"/>
    <xacro:ft_sensor_nano17 name="sensor_test" namespace="$(arg sensor_ns)_ft_sensor" parent="adapt_l" type="nano17">
        <origin xyz="0 0 0.01" rpy="0 0 -1.5707"/>
    </xacro:ft_sensor_nano17>-->
  <!--    <xacro:include filename="$(find polish_sr300)/urdf/ft_sensor_test.urdf.xacro"/>
    <xacro:polish_macro parent_link="adapt_l" enable_ground_truth="false">
      <origin xyz="0 0 0" rpy="0 0 0"/>
    </xacro:polish_macro>-->
  <!-- ############# -->
  <!-- Sensor models -->
  <!-- ############# -->
  <joint name="right_hand_sensor_test_base_joint" type="fixed">
    <origin rpy="0 0 -1.5707" xyz="0 0 0.005"/>
    <parent link="right_hand"/>
    <child link="sensor_test_axia80_base"/>
  </joint>
  <link name="sensor_test_axia80_base">
    <inertial>
      <mass value="0.3"/>
      <origin xyz="0 0 0.0125"/>
      <inertia ixx="0.0001417" ixy="0" ixz="0" iyy="0.00025215" iyz="0" izz="0.00025215"/>
    </inertial>
    <visual>
      <origin rpy="0 0 0" xyz="0 0 0.0125"/>
      <geometry>
        <!-- <cylinder radius="0.041" length="0.025"/> -->
        <mesh filename="package://force_torque_sensor/model/meshes/axia80.dae"/>
      </geometry>
    </visual>
    <collision>
      <origin rpy="0 0 0" xyz="0 0 0.0125"/>
      <geometry>
        <cylinder length="0.025" radius="0.041"/>
      </geometry>
    </collision>
  </link>
  <!--    <joint name="${parent}_${name}_measure_joint" type="revolute">-->
  <joint name="right_hand_sensor_test_measure_joint" type="fixed">
    <origin rpy="0 0 0" xyz="0 0 0"/>
    <parent link="sensor_test_axia80_base"/>
    <child link="sensor_test_axia80_measure"/>
    <limit effort="200" lower="0" upper="0" velocity="200"/>
    <axis xyz="0 0 0"/>
  </joint>
  <!--<joint name="${parent}_${name}_measure_joint" type="fixed">
        <xacro:insert_block name="axia80_measure_frame"/>
	<parent link="${name}_${type}_base"/>
	<child link="${name}_${type}_measure"/>
    </joint>-->
  <link name="sensor_test_axia80_measure">
    <inertial>
      <mass value="0.1"/>
      <origin xyz="0 0 0.0125"/>
      <inertia ixx="4.22333333333e-05" ixy="0" ixz="0" iyy="8.405e-05" iyz="0" izz="8.405e-05"/>
    </inertial>
    <visual>
      <origin rpy="0 0 0" xyz="0 0 0.0125"/>
      <geometry>
        <cylinder length="0.005" radius="0.041"/>
      </geometry>
    </visual>
    <collision>
      <origin rpy="0 0 0" xyz="0 0 0.0125"/>
      <geometry>
        <cylinder length="0.005" radius="0.041"/>
      </geometry>
    </collision>
  </link>
  <gazebo reference="sensor_test_axia80_base">
    <gravity>true</gravity>
  </gazebo>
  <gazebo reference="sensor_test_axia80_measure">
    <gravity>true</gravity>
  </gazebo>
  <!--        <gazebo reference="${parent}_${name}_measure_joint">-->
  <!--        <gazebo reference="ft_base_measure_joint">-->
  <!--        <provideFeedback>true</provideFeedback>
          <disableFixedJointLumping>true</disableFixedJointLumping>
        </gazebo>-->
  <!-- The ft_sensor plugin  -->
  <!--        <gazebo>-->
  <gazebo reference="right_hand_sensor_test_measure_joint">
    <provideFeedback>true</provideFeedback>
    <disableFixedJointLumping>true</disableFixedJointLumping>
    <plugin filename="libgazebo_ros_ft_sensor.so" name="sensor_test_ft_sensor">
      <!--            <plugin name="buff_ft_sensor" filename="libgazebo_ros_ft_sensor.so">-->
      <updateRate>1000.0</updateRate>
      <topicName>right_hand_sensor_test/ft_sensor_topic</topicName>
      <!--            <topicName>buff/ft_sensor_topic</topicName>-->
      <jointName>right_hand_sensor_test_measure_joint</jointName>
      <!--            <jointName>tool_adapt_link_ft_sensor_measure_joint</jointName>-->
      <noise>
        <type>gaussian</type>
        <mean>0.0</mean>
        <stddev>0.003</stddev>
        <!-- change this to simulate noise -->
      </noise>
    </plugin>
  </gazebo>
  <joint name="sawyer/rgbd_sensor_camera_rgb_joint" type="fixed">
    <origin rpy="0 -1.570796327 -1.570796327" xyz="0 0.1 0.025"/>
    <parent link="right_hand"/>
    <child link="sawyer/rgbd_sensor/camera_rgb_frame"/>
  </joint>
  <link name="sawyer/rgbd_sensor/camera_rgb_frame"/>
  <joint name="sawyer/rgbd_sensor_camera_rgb_optical_joint" type="fixed">
    <origin rpy="-1.57079632679 0 -1.57079632679" xyz="0 0 0"/>
    <parent link="sawyer/rgbd_sensor/camera_rgb_frame"/>
    <child link="camera_rgb_optical_frame"/>
  </joint>
  <link name="camera_rgb_optical_frame"/>
  <joint name="sawyer/rgbd_sensor_camera_joint" type="fixed">
    <origin rpy="0 0 0" xyz="0 -0.022 0"/>
    <parent link="sawyer/rgbd_sensor/camera_rgb_frame"/>
    <child link="sawyer/rgbd_sensor/camera_link"/>
  </joint>
  <link name="sawyer/rgbd_sensor/camera_link">
    <visual>
      <origin rpy="-1.57079632679 -3.14159265359 -1.57079632679" xyz="-0.015 0.0035 0.004"/>
      <geometry>
        <mesh filename="package://polish_sr300/gazebo_models/models/meshes/asus_xtion_pro_live.dae" scale="0.001 0.001 0.001"/>
      </geometry>
    </visual>
    <!--      <collision>-->
    <!--        <origin xyz="0.0 0.0 0.0" rpy="0 0 0" />-->
    <!--          <origin xyz="-0.015 0.0035 0.004" rpy="${-pi/2} -${pi} ${-pi/2}"/>
        <geometry>-->
    <!--          <box size="0.0730 0.2760 0.0720"/>-->
    <!--          <mesh filename="package://polish_sr300/gazebo_models/models/meshes/asus_xtion_pro_live.dae" scale="0.001 0.001 0.001"/>
        </geometry>
      </collision>-->
    <inertial>
      <mass value="0.070"/>
      <origin xyz="0 0 0"/>
      <inertia ixx="0.001152600" ixy="0.0" ixz="0.0" iyy="0.000148934" iyz="0.0" izz="0.001154654"/>
    </inertial>
  </link>
  <joint name="sawyer/rgbd_sensor_camera_depth_joint" type="fixed">
    <origin rpy="0 0 0" xyz="0 0.027 0"/>
    <parent link="sawyer/rgbd_sensor/camera_rgb_frame"/>
    <child link="sawyer/rgbd_sensor/camera_depth_frame"/>
  </joint>
  <link name="sawyer/rgbd_sensor/camera_depth_frame"/>
  <joint name="sawyer/rgbd_sensor_camera_depth_optical_joint" type="fixed">
    <origin rpy="-1.57079632679 0 -1.57079632679" xyz="0 0 0"/>
    <parent link="sawyer/rgbd_sensor/camera_depth_frame"/>
    <child link="sawyer/rgbd_sensor/camera_depth_optical_frame"/>
  </joint>
  <link name="sawyer/rgbd_sensor/camera_depth_optical_frame"/>
  <gazebo reference="sawyer/rgbd_sensor/camera_link">
    <sensor name="sawyer/rgbd_sensor_camera" type="depth">
      <always_on>true</always_on>
      <update_rate>20.0</update_rate>
      <camera>
        <horizontal_fov>1.0471975512</horizontal_fov>
        <image>
          <format>R8G8B8</format>
          <width>640</width>
          <height>480</height>
        </image>
        <clip>
          <near>0.05</near>
          <far>10.0</far>
        </clip>
      </camera>
      <plugin filename="libgazebo_ros_openni_kinect.so" name="sawyer/rgbd_sensor_camera">
        <robotNamespace>sawyer/rgbd_sensor</robotNamespace>
        <cameraName>sawyer/rgbd_sensor_camera</cameraName>
        <alwaysOn>true</alwaysOn>
        <updateRate>10</updateRate>
        <imageTopicName>rgb/image_raw</imageTopicName>
        <depthImageTopicName>depth/image_raw</depthImageTopicName>
        <pointCloudTopicName>depth/points</pointCloudTopicName>
        <cameraInfoTopicName>rgb/camera_info</cameraInfoTopicName>
        <depthImageCameraInfoTopicName>depth/camera_info</depthImageCameraInfoTopicName>
        <frameName>camera_depth_optical_frame</frameName>
        <baseline>0.1</baseline>
        <distortion_k1>0.0</distortion_k1>
        <distortion_k2>0.0</distortion_k2>
        <distortion_k3>0.0</distortion_k3>
        <distortion_t1>0.0</distortion_t1>
        <distortion_t2>0.0</distortion_t2>
        <pointCloudCutoff>0.4</pointCloudCutoff>
      </plugin>
    </sensor>
  </gazebo>
  <!-- including tool adapter and buff pad -->
  <!--    <xacro:include filename="$(find polish_sr300)/urdf/tool_adapt.urdf.xacro"/>
    <xacro:tool_adapt_macro parent_link="right_hand" sensor="nano17" enable_ground_truth="false" >
      <origin xyz="0 0 0" rpy="0 0 0"/>
    </xacro:tool_adapt_macro>

    <xacro:arg name='sensor_ns' default='sawyer' />
    <xacro:include filename="$(find polish_sr300)/urdf/buff_pad.urdf.xacro"/>
    <xacro:buff_pad_macro namespace="$(arg sensor_ns)_ft_sensor" sensor="nano17" enable_ground_truth="false" >
      <origin xyz="0 0 0" rpy="0 0 0"/>
    </xacro:buff_pad_macro>-->
  <!-- This is not a URDF, it is a URDF fragment describing a default end effector
     to be added to the robot URDF at run time.
  -->
  <!-- Base of end effector -->
  <link name="right_tool_base">
    <!--<visual>
      <origin rpy="0 0 0" xyz="0.0 0.0 0.02"/>
      <geometry>
        <cylinder length="0.04" radius="0.02"/>
      </geometry>
    </visual>-->
    <collision>
      <origin rpy="0 0 0" xyz="0.0 0.0 0.02"/>
      <geometry>
        <cylinder length="0.05" radius="0.05"/>
      </geometry>
      <material name="darkred">
        <color rgba=".5 .1 .1 1"/>
      </material>
    </collision>
    <inertial>
      <origin rpy="0 0 0" xyz="0.0 0.0 0.0"/>
      <mass value="0.3"/>
      <inertia ixx="2e-08" ixy="0" ixz="0" iyy="2e-08" iyz="0" izz="3e-08"/>
    </inertial>
  </link>
  <gazebo reference="right_tool_base">
    <turnGravityOff>true</turnGravityOff>
    <selfCollide>false</selfCollide>
    <mu1 value="0.01"/>
    <mu2 value="0.01"/>
    <kp value="40000"/>
    <kd value="1.0"/>
  </gazebo>
  <!-- Tool Tip link -->
  <link name="right_tool">
    <inertial>
      <origin rpy="0 0 0" xyz="0.0 0.0 0.0"/>
      <mass value="0.0001"/>
      <inertia ixx="1e-08" ixy="0" ixz="0" iyy="1e-08" iyz="0" izz="1e-08"/>
    </inertial>
    <visual>
      <origin rpy="0 0 0" xyz="0 0 0"/>
      <geometry>
        <mesh filename="package://polish_sr300/gazebo_models/models/meshes/tool.dae"/>
      </geometry>
    </visual>
    <collision>
      <origin rpy="0 0 0" xyz="0.0 0.0 0.05"/>
      <geometry>
        <cylinder length="0.02" radius="0.05"/>
      </geometry>
      <material name="darkred">
        <color rgba=".5 .1 .1 1"/>
      </material>
      <surface>
        <bounce>
          <restitution_coefficient>0.1</restitution_coefficient>
          <threshold>100000</threshold>
        </bounce>
        <friction>
          <origin rpy="0 0 0" xyz="0 0 0.025"/>
          <ode>
            <!--<mu>0.1</mu>
            <mu2>0.2</mu2>
            <fdir1>0 0 1</fdir1>
            <slip>0.1</slip>
            <slip2>0.2</slip2>-->
            <mu>0.01</mu>
            <mu2>0.01</mu2>
            <fdir1>0 0 1</fdir1>
            <slip1>0.0</slip1>
            <slip2>0.0</slip2>
          </ode>
        </friction>
        <contact>
          <poissons_ratio>0.4</poissons_ratio>
          <elastic_modulus>1e8</elastic_modulus>
          <ode>
            <soft_cfm>0.1</soft_cfm>
            <soft_erp>0.2</soft_erp>
            <!--<kp>1e10</kp>
            <kd>1</kd>
            <max_vel>0.02</max_vel>
            <min_dep>0.005</min_dep>-->
            <kp>20000</kp>
            <kd>1</kd>
            <max_vel>100.0</max_vel>
            <min_depth>0.05</min_depth>
          </ode>
        </contact>
      </surface>
    </collision>
    <inertial>
      <origin rpy="0 0 0" xyz="0.0 0.0 0.0"/>
      <mass value="0.3"/>
      <inertia ixx="2e-08" ixy="0" ixz="0" iyy="2e-08" iyz="0" izz="3e-08"/>
    </inertial>
  </link>
  <gazebo reference="right_tool">
    <turnGravityOff>true</turnGravityOff>
    <selfCollide>false</selfCollide>
    <mu1 value="0.01"/>
    <mu2 value="0.01"/>
    <kp value="20000"/>
    <kd value="1.0"/>
  </gazebo>
  <!--<gazebo reference="${side}_tool">
  <stopKd value="${finger_stop_kd}" />
  <stopKp value="${finger_stop_kp}" />
  <fudgeFactor value="${finger_fudge_factor}" />
  <provideFeedback value="true"/>
</gazebo>-->
  <!-- Tool Base Joint -->
  <joint name="right_tool_base" type="fixed">
    <!--    <origin rpy="0 0 0" xyz="0 0 0"/>-->
    <origin rpy="0 0 0" xyz="0 0 0.025"/>
    <!--<origin rpy="0 0 0" xyz="0 0 0.03"/>-->
    <!-- Axia80 + plate (0.025+0.005) -->
    <!--<origin rpy="0 0 0" xyz="0 0 0.027"/>-->
    <!-- Mini45 + plate (0.025+0.002) -->
    <!--<parent link="${side}_hand"/>-->
    <parent link="sensor_test_axia80_measure"/>
    <child link="right_tool_base"/>
  </joint>
  <!-- Tool Tip joint -->
  <joint name="right_tool_endpoint" type="fixed">
    <origin rpy="0 0 0" xyz="0 0 0"/>
    <parent link="right_tool_base"/>
    <child link="right_tool"/>
  </joint>
</robot>

